$date
  Sat Nov 24 19:06:21 2018
$end
$version
  GHDL v0
$end
$timescale
  1 fs
$end
$var reg 1 ! clk_s $end
$var reg 1 " reset_s $end
$var reg 2 # n_in_s[1:0] $end
$var reg 2 $ m_in_s[1:0] $end
$var reg 2 % p_in_s[1:0] $end
$var reg 4 & mem_a_addr_s[3:0] $end
$var reg 8 ' mem_a_data_in_s[7:0] $end
$var reg 1 ( mem_a_wr_s $end
$var reg 4 ) a_addr_s[3:0] $end
$var reg 8 * a_data_in_s[7:0] $end
$var reg 1 + a_wr_s $end
$var reg 4 , mem_b_addr_s[3:0] $end
$var reg 8 - mem_b_data_in_s[7:0] $end
$var reg 1 . mem_b_wr_s $end
$var reg 4 / b_addr_s[3:0] $end
$var reg 8 0 b_data_in_s[7:0] $end
$var reg 1 1 b_wr_s $end
$var reg 4 2 c_addr_s[3:0] $end
$var reg 19 3 c_data_out_s[18:0] $end
$var reg 1 4 c_wr_s $end
$var reg 1 5 start_s $end
$var reg 1 6 ready_s $end
$scope module matrix_a_mem $end
$var reg 1 7 clk $end
$var reg 1 8 reset $end
$var reg 4 9 p1_addr_i[3:0] $end
$var reg 8 : p1_data_i[7:0] $end
$var reg 8 ; p1_data_o[7:0] $end
$var reg 1 < p1_wr_i $end
$var reg 4 = p2_addr_i[3:0] $end
$var reg 8 > p2_data_i[7:0] $end
$var reg 8 ? p2_data_o[7:0] $end
$var reg 1 @ p2_wr_i $end
$comment mem_s is not handled $end
$upscope $end
$scope module matrix_b_mem $end
$var reg 1 A clk $end
$var reg 1 B reset $end
$var reg 4 C p1_addr_i[3:0] $end
$var reg 8 D p1_data_i[7:0] $end
$var reg 8 E p1_data_o[7:0] $end
$var reg 1 F p1_wr_i $end
$var reg 4 G p2_addr_i[3:0] $end
$var reg 8 H p2_data_i[7:0] $end
$var reg 8 I p2_data_o[7:0] $end
$var reg 1 J p2_wr_i $end
$comment mem_s is not handled $end
$upscope $end
$scope module matrix_c_mem $end
$var reg 1 K clk $end
$var reg 1 L reset $end
$var reg 4 M p1_addr_i[3:0] $end
$var reg 19 N p1_data_i[18:0] $end
$var reg 19 O p1_data_o[18:0] $end
$var reg 1 P p1_wr_i $end
$var reg 4 Q p2_addr_i[3:0] $end
$var reg 19 R p2_data_i[18:0] $end
$var reg 19 S p2_data_o[18:0] $end
$var reg 1 T p2_wr_i $end
$comment mem_s is not handled $end
$upscope $end
$scope module matrix_multiplication_core $end
$var reg 1 U clk $end
$var reg 1 V reset $end
$var reg 4 W a_addr_o[3:0] $end
$var reg 8 X a_data_i[7:0] $end
$var reg 1 Y a_wr_o $end
$var reg 4 Z b_addr_o[3:0] $end
$var reg 8 [ b_data_i[7:0] $end
$var reg 1 \ b_wr_o $end
$var reg 2 ] n_in[1:0] $end
$var reg 2 ^ p_in[1:0] $end
$var reg 2 _ m_in[1:0] $end
$var reg 4 ` c_addr_o[3:0] $end
$var reg 19 a c_data_o[18:0] $end
$var reg 1 b c_wr_o $end
$var reg 1 c start $end
$var reg 1 d ready $end
$comment state_reg is not handled $end
$comment state_next is not handled $end
$var reg 2 e i_reg[1:0] $end
$var reg 2 f i_next[1:0] $end
$var reg 2 g j_reg[1:0] $end
$var reg 2 h j_next[1:0] $end
$var reg 2 i k_reg[1:0] $end
$var reg 2 j k_next[1:0] $end
$var reg 19 k temp_reg[18:0] $end
$var reg 19 l temp_next[18:0] $end
$upscope $end
$enddefinitions $end
#0
0!
1"
b11 #
b11 $
b11 %
bUUUU &
bUUUUUUUU '
U(
b0000 )
bUUUUUUUU *
0+
bUUUU ,
bUUUUUUUU -
U.
b0000 /
bUUUUUUUU 0
01
b0000 2
b0000000000000000000 3
04
05
16
07
18
bUUUU 9
bUUUUUUUU :
bUUUUUUUU ;
U<
b0000 =
b00000000 >
bUUUUUUUU ?
0@
0A
1B
bUUUU C
bUUUUUUUU D
bUUUUUUUU E
UF
b0000 G
b00000000 H
bUUUUUUUU I
0J
0K
1L
b0000 M
b0000000000000000000 N
bUUUUUUUUUUUUUUUUUUU O
0P
b0000 Q
b0000000000000000000 R
bUUUUUUUUUUUUUUUUUUU S
0T
0U
1V
b0000 W
bUUUUUUUU X
0Y
b0000 Z
bUUUUUUUU [
0\
b11 ]
b11 ^
b11 _
b0000 `
b0000000000000000000 a
0b
0c
1d
b00 e
b00 f
b00 g
b00 h
b00 i
b00 j
b0000000000000000000 k
b0000000000000000000 l
#100000000
1!
17
1A
1K
1U
#200000000
0!
07
0A
0K
0U
#300000000
1!
17
1A
1K
1U
#400000000
0!
07
0A
0K
0U
#500000000
1!
0"
17
08
1A
0B
1K
0L
1U
0V
#600000000
0!
b0000 &
b00000001 '
1(
07
b0000 9
b00000001 :
1<
0A
0K
0U
#700000000
1!
b00000000 *
b00000000 0
17
b00000000 ;
b00000000 ?
1A
b00000000 E
b00000000 I
1K
b0000000000000000000 O
b0000000000000000000 S
1U
b00000000 X
b00000000 [
1d
#800000000
0!
b0001 &
b00000010 '
07
b0001 9
b00000010 :
0A
0K
0U
#900000000
1!
b00000001 *
17
b00000001 ?
1A
1K
1U
b00000001 X
1d
#1000000000
0!
b0010 &
b00000011 '
07
b0010 9
b00000011 :
0A
0K
0U
#1100000000
1!
17
1A
1K
1U
#1200000000
0!
b0011 &
b00000100 '
07
b0011 9
b00000100 :
0A
0K
0U
#1300000000
1!
17
1A
1K
1U
#1400000000
0!
b0100 &
b00000101 '
07
b0100 9
b00000101 :
0A
0K
0U
#1500000000
1!
17
1A
1K
1U
#1600000000
0!
b0101 &
b00000110 '
07
b0101 9
b00000110 :
0A
0K
0U
#1700000000
1!
17
1A
1K
1U
#1800000000
0!
b0110 &
b00000111 '
07
b0110 9
b00000111 :
0A
0K
0U
#1900000000
1!
17
1A
1K
1U
#2000000000
0!
b0111 &
b00001000 '
07
b0111 9
b00001000 :
0A
0K
0U
#2100000000
1!
17
1A
1K
1U
#2200000000
0!
b1000 &
b00001001 '
07
b1000 9
b00001001 :
0A
0K
0U
#2300000000
1!
17
1A
1K
1U
#2400000000
0!
0(
b0000 ,
b00001010 -
1.
07
0<
0A
b0000 C
b00001010 D
1F
0K
0U
#2500000000
1!
17
b00001001 ;
1A
1K
1U
#2600000000
0!
b0001 ,
b00001011 -
07
0A
b0001 C
b00001011 D
0K
0U
#2700000000
1!
b00001010 0
17
1A
b00001010 I
1K
1U
b00001010 [
1d
#2800000000
0!
b0010 ,
b00001100 -
07
0A
b0010 C
b00001100 D
0K
0U
#2900000000
1!
17
1A
1K
1U
#3000000000
0!
b0011 ,
b00001101 -
07
0A
b0011 C
b00001101 D
0K
0U
#3100000000
1!
17
1A
1K
1U
#3200000000
0!
b0100 ,
b00001110 -
07
0A
b0100 C
b00001110 D
0K
0U
#3300000000
1!
17
1A
1K
1U
#3400000000
0!
b0101 ,
b00001111 -
07
0A
b0101 C
b00001111 D
0K
0U
#3500000000
1!
17
1A
1K
1U
#3600000000
0!
b0110 ,
b00010000 -
07
0A
b0110 C
b00010000 D
0K
0U
#3700000000
1!
17
1A
1K
1U
#3800000000
0!
b0111 ,
b00010001 -
07
0A
b0111 C
b00010001 D
0K
0U
#3900000000
1!
17
1A
1K
1U
#4000000000
0!
b1000 ,
b00010010 -
07
0A
b1000 C
b00010010 D
0K
0U
#4100000000
1!
17
1A
1K
1U
#4200000000
0!
0.
15
07
0A
0F
0K
0U
1c
1d
#4300000000
1!
06
17
1A
b00010010 E
1K
1U
0d
#4400000000
0!
05
07
0A
0K
0U
0c
#4500000000
1!
17
1A
1K
1U
#4600000000
0!
07
0A
0K
0U
#4700000000
1!
b0001 )
b0011 /
17
b0001 =
1A
b0011 G
1K
1U
b0001 W
b0011 Z
b01 j
b0000000000000001010 l
#4800000000
0!
07
0A
0K
0U
#4900000000
1!
b0010 )
b00000010 *
b0110 /
b00001101 0
17
b0010 =
b00000010 ?
1A
b0110 G
b00001101 I
1K
1U
b0010 W
b00000010 X
b0110 Z
b00001101 [
b01 i
b10 j
b0000000000000001010 k
b0000000000000100100 l
#5000000000
0!
07
0A
0K
0U
#5100000000
1!
b0011 )
b00000011 *
b1001 /
b00010000 0
b0000000000001010100 3
14
17
b0011 =
b00000011 ?
1A
b1001 G
b00010000 I
1K
b0000000000001010100 R
1T
1U
b0011 W
b00000011 X
b1001 Z
b00010000 [
b0000000000001010100 a
1b
b01 h
b10 i
b11 j
b0000000000000100100 k
b0000000000001010100 l
#5200000000
0!
07
0A
0K
0U
#5300000000
1!
b0000 )
b00000100 *
b0001 /
b00000000 0
b0000000000000000000 3
04
17
b0000 =
b00000100 ?
1A
b0001 G
b00000000 I
1K
b0000000000000000000 R
0T
1U
b0000 W
b00000100 X
b0001 Z
b00000000 [
b0000000000000000000 a
0b
b01 g
b11 i
b00 j
b0000000000001010100 k
b0000000000000000000 l
#5400000000
0!
07
0A
0K
0U
#5500000000
1!
b0001 )
b00000001 *
b0100 /
b00001011 0
17
b0001 =
b00000001 ?
1A
b0100 G
b00001011 I
1K
b0000000000001010100 O
b0000000000001010100 S
1U
b0001 W
b00000001 X
b0100 Z
b00001011 [
b00 i
b01 j
b0000000000000000000 k
b0000000000000001011 l
#5600000000
0!
07
0A
0K
0U
#5700000000
1!
b0010 )
b00000010 *
b0111 /
b00001110 0
17
b0010 =
b00000010 ?
1A
b0111 G
b00001110 I
1K
1U
b0010 W
b00000010 X
b0111 Z
b00001110 [
b01 i
b10 j
b0000000000000001011 k
b0000000000000100111 l
#5800000000
0!
07
0A
0K
0U
#5900000000
1!
b0011 )
b00000011 *
b1010 /
b00010001 0
b0001 2
b0000000000001011010 3
14
17
b0011 =
b00000011 ?
1A
b1010 G
b00010001 I
1K
b0001 Q
b0000000000001011010 R
1T
1U
b0011 W
b00000011 X
b1010 Z
b00010001 [
b0001 `
b0000000000001011010 a
1b
b10 h
b10 i
b11 j
b0000000000000100111 k
b0000000000001011010 l
#6000000000
0!
07
0A
0K
0U
#6100000000
1!
b0000 )
b00000100 *
b0010 /
b00000000 0
b0000 2
b0000000000000000000 3
04
17
b0000 =
b00000100 ?
1A
b0010 G
b00000000 I
1K
b0000 Q
b0000000000000000000 R
b0000000000000000000 S
0T
1U
b0000 W
b00000100 X
b0010 Z
b00000000 [
b0000 `
b0000000000000000000 a
0b
b10 g
b11 i
b00 j
b0000000000001011010 k
b0000000000000000000 l
#6200000000
0!
07
0A
0K
0U
#6300000000
1!
b0001 )
b00000001 *
b0101 /
b00001100 0
17
b0001 =
b00000001 ?
1A
b0101 G
b00001100 I
1K
b0000000000001010100 S
1U
b0001 W
b00000001 X
b0101 Z
b00001100 [
b00 i
b01 j
b0000000000000000000 k
b0000000000000001100 l
#6400000000
0!
07
0A
0K
0U
#6500000000
1!
b0010 )
b00000010 *
b1000 /
b00001111 0
17
b0010 =
b00000010 ?
1A
b1000 G
b00001111 I
1K
1U
b0010 W
b00000010 X
b1000 Z
b00001111 [
b01 i
b10 j
b0000000000000001100 k
b0000000000000101010 l
#6600000000
0!
07
0A
0K
0U
#6700000000
1!
b0011 )
b00000011 *
b1011 /
b00010010 0
b0010 2
b0000000000001100000 3
14
17
b0011 =
b00000011 ?
1A
b1011 G
b00010010 I
1K
b0010 Q
b0000000000001100000 R
1T
1U
b0011 W
b00000011 X
b1011 Z
b00010010 [
b0010 `
b0000000000001100000 a
1b
b01 f
b11 h
b10 i
b11 j
b0000000000000101010 k
b0000000000001100000 l
#6800000000
0!
07
0A
0K
0U
#6900000000
1!
b0000 )
b00000100 *
b0000 /
b00000000 0
b0000 2
b0000000000000000000 3
04
17
b0000 =
b00000100 ?
1A
b0000 G
b00000000 I
1K
b0000 Q
b0000000000000000000 R
b0000000000000000000 S
0T
1U
b0000 W
b00000100 X
b0000 Z
b00000000 [
b0000 `
b0000000000000000000 a
0b
b01 e
b11 g
b00 h
b11 i
b0000000000001100000 k
#7000000000
0!
07
0A
0K
0U
#7100000000
1!
b0011 )
b00000001 *
b0000 /
b00001010 0
17
b0011 =
b00000001 ?
1A
b0000 G
b00001010 I
1K
b0000000000001010100 S
1U
b0011 W
b00000001 X
b0000 Z
b00001010 [
b00 g
b00 j
b0000000000000000000 l
#7200000000
0!
07
0A
0K
0U
#7300000000
1!
b0100 )
b00000100 *
b0011 /
17
b0100 =
b00000100 ?
1A
b0011 G
1K
1U
b0100 W
b00000100 X
b0011 Z
b00 i
b01 j
b0000000000000000000 k
b0000000000000101000 l
#7400000000
0!
07
0A
0K
0U
#7500000000
1!
b0101 )
b00000101 *
b0110 /
b00001101 0
17
b0101 =
b00000101 ?
1A
b0110 G
b00001101 I
1K
1U
b0101 W
b00000101 X
b0110 Z
b00001101 [
b01 i
b10 j
b0000000000000101000 k
b0000000000001101001 l
#7600000000
0!
07
0A
0K
0U
#7700000000
1!
b0110 )
b00000110 *
b1001 /
b00010000 0
b0011 2
b0000000000011001001 3
14
17
b0110 =
b00000110 ?
1A
b1001 G
b00010000 I
1K
b0011 Q
b0000000000011001001 R
1T
1U
b0110 W
b00000110 X
b1001 Z
b00010000 [
b0011 `
b0000000000011001001 a
1b
b01 h
b10 i
b11 j
b0000000000001101001 k
b0000000000011001001 l
#7800000000
0!
07
0A
0K
0U
#7900000000
1!
b0011 )
b00000111 *
b0001 /
b00000000 0
b0000 2
b0000000000000000000 3
04
17
b0011 =
b00000111 ?
1A
b0001 G
b00000000 I
1K
b0000 Q
b0000000000000000000 R
b0000000000000000000 S
0T
1U
b0011 W
b00000111 X
b0001 Z
b00000000 [
b0000 `
b0000000000000000000 a
0b
b01 g
b11 i
b00 j
b0000000000011001001 k
b0000000000000000000 l
#8000000000
0!
07
0A
0K
0U
#8100000000
1!
b0100 )
b00000100 *
b0100 /
b00001011 0
17
b0100 =
b00000100 ?
1A
b0100 G
b00001011 I
1K
b0000000000001010100 S
1U
b0100 W
b00000100 X
b0100 Z
b00001011 [
b00 i
b01 j
b0000000000000000000 k
b0000000000000101100 l
#8200000000
0!
07
0A
0K
0U
#8300000000
1!
b0101 )
b00000101 *
b0111 /
b00001110 0
17
b0101 =
b00000101 ?
1A
b0111 G
b00001110 I
1K
1U
b0101 W
b00000101 X
b0111 Z
b00001110 [
b01 i
b10 j
b0000000000000101100 k
b0000000000001110010 l
#8400000000
0!
07
0A
0K
0U
#8500000000
1!
b0110 )
b00000110 *
b1010 /
b00010001 0
b0100 2
b0000000000011011000 3
14
17
b0110 =
b00000110 ?
1A
b1010 G
b00010001 I
1K
b0100 Q
b0000000000011011000 R
1T
1U
b0110 W
b00000110 X
b1010 Z
b00010001 [
b0100 `
b0000000000011011000 a
1b
b10 h
b10 i
b11 j
b0000000000001110010 k
b0000000000011011000 l
#8600000000
0!
07
0A
0K
0U
#8700000000
1!
b0011 )
b00000111 *
b0010 /
b00000000 0
b0000 2
b0000000000000000000 3
04
17
b0011 =
b00000111 ?
1A
b0010 G
b00000000 I
1K
b0000 Q
b0000000000000000000 R
b0000000000000000000 S
0T
1U
b0011 W
b00000111 X
b0010 Z
b00000000 [
b0000 `
b0000000000000000000 a
0b
b10 g
b11 i
b00 j
b0000000000011011000 k
b0000000000000000000 l
#8800000000
0!
07
0A
0K
0U
#8900000000
1!
b0100 )
b00000100 *
b0101 /
b00001100 0
17
b0100 =
b00000100 ?
1A
b0101 G
b00001100 I
1K
b0000000000001010100 S
1U
b0100 W
b00000100 X
b0101 Z
b00001100 [
b00 i
b01 j
b0000000000000000000 k
b0000000000000110000 l
#9000000000
0!
07
0A
0K
0U
#9100000000
1!
b0101 )
b00000101 *
b1000 /
b00001111 0
17
b0101 =
b00000101 ?
1A
b1000 G
b00001111 I
1K
1U
b0101 W
b00000101 X
b1000 Z
b00001111 [
b01 i
b10 j
b0000000000000110000 k
b0000000000001111011 l
#9200000000
0!
07
0A
0K
0U
#9300000000
1!
b0110 )
b00000110 *
b1011 /
b00010010 0
b0101 2
b0000000000011100111 3
14
17
b0110 =
b00000110 ?
1A
b1011 G
b00010010 I
1K
b0101 Q
b0000000000011100111 R
1T
1U
b0110 W
b00000110 X
b1011 Z
b00010010 [
b0101 `
b0000000000011100111 a
1b
b10 f
b11 h
b10 i
b11 j
b0000000000001111011 k
b0000000000011100111 l
#9400000000
0!
07
0A
0K
0U
#9500000000
1!
b0000 )
b00000111 *
b0000 /
b00000000 0
b0000 2
b0000000000000000000 3
04
17
b0000 =
b00000111 ?
1A
b0000 G
b00000000 I
1K
b0000 Q
b0000000000000000000 R
b0000000000000000000 S
0T
1U
b0000 W
b00000111 X
b0000 Z
b00000000 [
b0000 `
b0000000000000000000 a
0b
b10 e
b11 g
b00 h
b11 i
b0000000000011100111 k
#9600000000
0!
07
0A
0K
0U
#9700000000
1!
b0110 )
b00000001 *
b0000 /
b00001010 0
17
b0110 =
b00000001 ?
1A
b0000 G
b00001010 I
1K
b0000000000001010100 S
1U
b0110 W
b00000001 X
b0000 Z
b00001010 [
b00 g
b00 j
b0000000000000000000 l
#9800000000
0!
07
0A
0K
0U
#9900000000
1!
b0111 )
b00000111 *
b0011 /
17
b0111 =
b00000111 ?
1A
b0011 G
1K
1U
b0111 W
b00000111 X
b0011 Z
b00 i
b01 j
b0000000000000000000 k
b0000000000001000110 l
#10000000000
0!
07
0A
0K
0U
#10100000000
1!
b1000 )
b00001000 *
b0110 /
b00001101 0
17
b1000 =
b00001000 ?
1A
b0110 G
b00001101 I
1K
1U
b1000 W
b00001000 X
b0110 Z
b00001101 [
b01 i
b10 j
b0000000000001000110 k
b0000000000010101110 l
#10200000000
0!
07
0A
0K
0U
#10300000000
1!
b1001 )
b00001001 *
b1001 /
b00010000 0
b0110 2
b0000000000100111110 3
14
17
b1001 =
b00001001 ?
1A
b1001 G
b00010000 I
1K
b0110 Q
b0000000000100111110 R
1T
1U
b1001 W
b00001001 X
b1001 Z
b00010000 [
b0110 `
b0000000000100111110 a
1b
b01 h
b10 i
b11 j
b0000000000010101110 k
b0000000000100111110 l
#10400000000
0!
07
0A
0K
0U
#10500000000
1!
b0110 )
b00000000 *
b0001 /
b00000000 0
b0000 2
b0000000000000000000 3
04
17
b0110 =
b00000000 ?
1A
b0001 G
b00000000 I
1K
b0000 Q
b0000000000000000000 R
b0000000000000000000 S
0T
1U
b0110 W
b00000000 X
b0001 Z
b00000000 [
b0000 `
b0000000000000000000 a
0b
b01 g
b11 i
b00 j
b0000000000100111110 k
b0000000000000000000 l
#10600000000
0!
07
0A
0K
0U
#10700000000
1!
b0111 )
b00000111 *
b0100 /
b00001011 0
17
b0111 =
b00000111 ?
1A
b0100 G
b00001011 I
1K
b0000000000001010100 S
1U
b0111 W
b00000111 X
b0100 Z
b00001011 [
b00 i
b01 j
b0000000000000000000 k
b0000000000001001101 l
#10800000000
0!
07
0A
0K
0U
#10900000000
1!
b1000 )
b00001000 *
b0111 /
b00001110 0
17
b1000 =
b00001000 ?
1A
b0111 G
b00001110 I
1K
1U
b1000 W
b00001000 X
b0111 Z
b00001110 [
b01 i
b10 j
b0000000000001001101 k
b0000000000010111101 l
#11000000000
0!
07
0A
0K
0U
#11100000000
1!
b1001 )
b00001001 *
b1010 /
b00010001 0
b0111 2
b0000000000101010110 3
14
17
b1001 =
b00001001 ?
1A
b1010 G
b00010001 I
1K
b0111 Q
b0000000000101010110 R
1T
1U
b1001 W
b00001001 X
b1010 Z
b00010001 [
b0111 `
b0000000000101010110 a
1b
b10 h
b10 i
b11 j
b0000000000010111101 k
b0000000000101010110 l
#11200000000
0!
07
0A
0K
0U
#11300000000
1!
b0110 )
b00000000 *
b0010 /
b00000000 0
b0000 2
b0000000000000000000 3
04
17
b0110 =
b00000000 ?
1A
b0010 G
b00000000 I
1K
b0000 Q
b0000000000000000000 R
b0000000000000000000 S
0T
1U
b0110 W
b00000000 X
b0010 Z
b00000000 [
b0000 `
b0000000000000000000 a
0b
b10 g
b11 i
b00 j
b0000000000101010110 k
b0000000000000000000 l
#11400000000
0!
07
0A
0K
0U
#11500000000
1!
b0111 )
b00000111 *
b0101 /
b00001100 0
17
b0111 =
b00000111 ?
1A
b0101 G
b00001100 I
1K
b0000000000001010100 S
1U
b0111 W
b00000111 X
b0101 Z
b00001100 [
b00 i
b01 j
b0000000000000000000 k
b0000000000001010100 l
#11600000000
0!
07
0A
0K
0U
#11700000000
1!
b1000 )
b00001000 *
b1000 /
b00001111 0
17
b1000 =
b00001000 ?
1A
b1000 G
b00001111 I
1K
1U
b1000 W
b00001000 X
b1000 Z
b00001111 [
b01 i
b10 j
b0000000000001010100 k
b0000000000011001100 l
#11800000000
0!
07
0A
0K
0U
#11900000000
1!
b1001 )
b00001001 *
b1011 /
b00010010 0
b1000 2
b0000000000101101110 3
14
17
b1001 =
b00001001 ?
1A
b1011 G
b00010010 I
1K
b1000 Q
b0000000000101101110 R
1T
1U
b1001 W
b00001001 X
b1011 Z
b00010010 [
b1000 `
b0000000000101101110 a
1b
b11 f
b11 h
b10 i
b11 j
b0000000000011001100 k
b0000000000101101110 l
#12000000000
0!
07
0A
0K
0U
#12100000000
1!
b0000 )
b00000000 *
b0000 /
b00000000 0
b0000 2
b0000000000000000000 3
04
16
17
b0000 =
b00000000 ?
1A
b0000 G
b00000000 I
1K
b0000 Q
b0000000000000000000 R
b0000000000000000000 S
0T
1U
b0000 W
b00000000 X
b0000 Z
b00000000 [
b0000 `
b0000000000000000000 a
0b
1d
b11 e
b11 g
b11 i
b0000000000101101110 k
#12200000000
0!
07
0A
0K
0U
#12300000000
1!
b00000001 *
b00001010 0
17
b00000001 ?
1A
b00001010 I
1K
b0000000000001010100 S
1U
b00000001 X
b00001010 [
1d
#12400000000
0!
07
0A
0K
0U
#12500000000
1!
17
1A
1K
1U
#12600000000
0!
07
0A
0K
0U
#12700000000
1!
17
1A
1K
1U
#12800000000
0!
07
0A
0K
0U
#12900000000
1!
17
1A
1K
1U
#13000000000
0!
07
0A
0K
0U
#13100000000
1!
17
1A
1K
1U
#13200000000
0!
07
0A
0K
0U
#13300000000
1!
17
1A
1K
1U
#13400000000
0!
07
0A
0K
0U
#13500000000
1!
17
1A
1K
1U
#13600000000
0!
07
0A
0K
0U
#13700000000
1!
17
1A
1K
1U
#13800000000
0!
07
0A
0K
0U
#13900000000
1!
17
1A
1K
1U
#14000000000
0!
07
0A
0K
0U
#14100000000
1!
17
1A
1K
1U
#14200000000
0!
07
0A
0K
0U
#14300000000
1!
17
1A
1K
1U
#14400000000
0!
07
0A
0K
0U
#14500000000
1!
17
1A
1K
1U
#14600000000
0!
07
0A
0K
0U
#14700000000
1!
17
1A
1K
1U
#14800000000
0!
07
0A
0K
0U
#14900000000
1!
17
1A
1K
1U
#15000000000
0!
07
0A
0K
0U
